{
  "IcoMoonType": "selection",
  "icons": [
    {
      "icon": {
        "paths": [
          "M538.168 808.421l-316.327 166.544 60.413-352.746-255.914-249.816 353.664-51.465 158.164-320.939 158.164 320.939 353.664 51.465-255.914 249.816 60.413 352.746z"
        ],
        "attrs": [
          {
            "fill": "rgb(85, 85, 85)"
          }
        ],
        "width": 1078,
        "isMulticolor": false,
        "isMulticolor2": false,
        "grid": 0,
        "tags": [
          "Star"
        ],
        "colorPermutations": {
          "255100018585851": [
            {
              "f": 0
            }
          ]
        }
      },
      "attrs": [
        {
          "fill": "rgb(85, 85, 85)"
        }
      ],
      "properties": {
        "order": 19,
        "id": 12,
        "name": "Star",
        "prevSize": 32,
        "code": 59660
      },
      "setIdx": 0,
      "setId": 2,
      "iconIdx": 0
    },
    {
      "icon": {
        "paths": [
          "M576 256c0 35.346-28.654 64-64 64s-64-28.654-64-64c0-35.346 28.654-64 64-64s64 28.654 64 64z",
          "M576 512c0 35.346-28.654 64-64 64s-64-28.654-64-64c0-35.346 28.654-64 64-64s64 28.654 64 64z",
          "M576 768c0 35.346-28.654 64-64 64s-64-28.654-64-64c0-35.346 28.654-64 64-64s64 28.654 64 64z"
        ],
        "attrs": [
          {},
          {},
          {}
        ],
        "isMulticolor": false,
        "isMulticolor2": false,
        "grid": 0,
        "tags": [
          "Context Menu"
        ],
        "colorPermutations": {
          "255100018585851": [
            {},
            {},
            {}
          ]
        }
      },
      "attrs": [
        {},
        {},
        {}
      ],
      "properties": {
        "order": 20,
        "id": 11,
        "name": "Context-Menu",
        "prevSize": 32,
        "code": 59648
      },
      "setIdx": 0,
      "setId": 2,
      "iconIdx": 1
    },
    {
      "icon": {
        "paths": [
          "M563.2 192h-285.867v640h469.333v-456.533l-183.467-183.467zM576 264.533l98.133 98.133h-98.133v-98.133zM320 789.333v-554.667h213.333v170.667h170.667v384h-384z"
        ],
        "attrs": [
          {
            "fill": "rgb(85, 85, 85)"
          }
        ],
        "isMulticolor": false,
        "isMulticolor2": false,
        "grid": 0,
        "tags": [
          "Feature Article"
        ],
        "colorPermutations": {
          "255100018585851": [
            {
              "f": 0
            }
          ]
        }
      },
      "attrs": [
        {
          "fill": "rgb(85, 85, 85)"
        }
      ],
      "properties": {
        "order": 21,
        "id": 10,
        "name": "Feature-Article",
        "prevSize": 32,
        "code": 59649
      },
      "setIdx": 0,
      "setId": 2,
      "iconIdx": 2
    },
    {
      "icon": {
        "paths": [
          "M336.175 672.347c44.21 0 85.771-17.216 117.031-48.476l80.128-80.128 80.128 80.128c31.26 31.26 72.823 48.476 117.031 48.476 44.21 0 85.771-17.217 117.031-48.476 31.26-31.26 48.476-72.823 48.476-117.031 0-44.21-17.216-85.771-48.476-117.031s-72.821-48.476-117.031-48.476c-44.208 0-85.771 17.216-117.031 48.476l-80.128 80.129-80.128-80.128c-31.26-31.26-72.823-48.476-117.031-48.476-44.21 0-85.771 17.216-117.031 48.476-31.261 31.259-48.477 72.821-48.477 117.031 0 44.207 17.216 85.77 48.476 117.030 31.261 31.26 72.823 48.476 117.032 48.476zM650.365 426.711c21.403-21.403 49.861-33.191 80.128-33.191 30.27 0 58.726 11.787 80.128 33.191 21.404 21.403 33.192 49.861 33.192 80.129s-11.789 58.724-33.192 80.128c-21.403 21.403-49.86 33.191-80.128 33.191s-58.726-11.789-80.128-33.191l-80.129-80.128 80.129-80.129zM256.045 426.711c21.403-21.403 49.86-33.191 80.128-33.191s58.726 11.787 80.128 33.191l80.129 80.129-80.131 80.129c-21.403 21.403-49.86 33.19-80.128 33.19s-58.727-11.787-80.129-33.19c-21.403-21.404-33.19-49.861-33.19-80.128 0.002-30.27 11.789-58.727 33.192-80.131z"
        ],
        "attrs": [
          {
            "fill": "rgb(85, 85, 85)"
          }
        ],
        "isMulticolor": false,
        "isMulticolor2": false,
        "grid": 0,
        "tags": [
          "Feature Infinite"
        ],
        "colorPermutations": {
          "255100018585851": [
            {
              "f": 0
            }
          ]
        }
      },
      "attrs": [
        {
          "fill": "rgb(85, 85, 85)"
        }
      ],
      "properties": {
        "order": 22,
        "id": 9,
        "name": "Feature-Infinite",
        "prevSize": 32,
        "code": 59650
      },
      "setIdx": 0,
      "setId": 2,
      "iconIdx": 3
    },
    {
      "icon": {
        "paths": [
          "M640 170.667h-256c-46.933 0-85.333 38.4-85.333 85.333v512c0 46.933 38.4 85.333 85.333 85.333h256c46.933 0 85.333-38.4 85.333-85.333v-512c0-46.933-38.4-85.333-85.333-85.333v0zM384 810.667c-25.6 0-42.667-17.067-42.667-42.667v-512c0-25.6 17.067-42.667 42.667-42.667h256c25.6 0 42.667 17.067 42.667 42.667v512c0 25.6-17.067 42.667-42.667 42.667h-256z",
          "M512 682.667c-25.6 0-42.667 17.067-42.667 42.667s17.067 42.667 42.667 42.667 42.667-17.067 42.667-42.667-17.067-42.667-42.667-42.667v0z"
        ],
        "attrs": [
          {
            "fill": "rgb(85, 85, 85)"
          },
          {
            "fill": "rgb(85, 85, 85)"
          }
        ],
        "isMulticolor": false,
        "isMulticolor2": false,
        "grid": 0,
        "tags": [
          "Feature Mobile"
        ],
        "colorPermutations": {
          "255100018585851": [
            {
              "f": 0
            },
            {
              "f": 0
            }
          ]
        }
      },
      "attrs": [
        {
          "fill": "rgb(85, 85, 85)"
        },
        {
          "fill": "rgb(85, 85, 85)"
        }
      ],
      "properties": {
        "order": 23,
        "id": 8,
        "name": "Feature-Mobile",
        "prevSize": 32,
        "code": 59651
      },
      "setIdx": 0,
      "setId": 2,
      "iconIdx": 4
    },
    {
      "icon": {
        "paths": [
          "M332.8 866.133c-4.267 0-8.533 0-12.8-4.267-8.533-4.267-12.8-17.067-8.533-25.6l98.133-260.267h-110.933c-8.533 0-17.067-4.267-21.333-12.8s0-17.067 4.267-21.333l384-384c8.533-8.533 17.067-8.533 25.6-4.267s12.8 17.067 8.533 25.6l-89.6 260.267h115.2c8.533 0 17.067 4.267 21.333 12.8s0 17.067-4.267 21.333l-392.533 384c-8.533 4.267-12.8 8.533-17.067 8.533zM349.867 533.333h89.6c8.533 0 12.8 4.267 17.067 8.533s4.267 12.8 4.267 21.333l-76.8 196.267 285.867-277.333h-89.6c-8.533 0-12.8-4.267-17.067-8.533s-4.267-12.8-4.267-21.333l68.267-204.8-277.333 285.867z"
        ],
        "attrs": [
          {
            "fill": "rgb(85, 85, 85)"
          }
        ],
        "isMulticolor": false,
        "isMulticolor2": false,
        "grid": 0,
        "tags": [
          "Feature Personal"
        ],
        "colorPermutations": {
          "255100018585851": [
            {
              "f": 0
            }
          ]
        }
      },
      "attrs": [
        {
          "fill": "rgb(85, 85, 85)"
        }
      ],
      "properties": {
        "order": 24,
        "id": 7,
        "name": "Feature-Personal",
        "prevSize": 32,
        "code": 59652
      },
      "setIdx": 0,
      "setId": 2,
      "iconIdx": 5
    },
    {
      "icon": {
        "paths": [
          "M917.333 763.733l21.333-38.4-149.333-85.333v-260.267l-234.667-136.533v-115.2h-42.667v115.2l-234.667 136.533v260.267l-149.333 85.333 21.333 38.4 140.8-81.067 221.867 128 21.333 12.8 21.333-12.8 221.867-128 140.8 81.067zM520.533 499.2l-183.467-106.667 196.267-115.2 183.467 106.667-196.267 115.2zM320 648.533v-217.6l192 110.933v217.6l-192-110.933zM554.667 759.467v-234.667l192-110.933v234.667l-192 110.933z"
        ],
        "attrs": [
          {
            "fill": "rgb(85, 85, 85)"
          }
        ],
        "isMulticolor": false,
        "isMulticolor2": false,
        "grid": 0,
        "tags": [
          "Feature Resources"
        ],
        "colorPermutations": {
          "255100018585851": [
            {
              "f": 0
            }
          ]
        }
      },
      "attrs": [
        {
          "fill": "rgb(85, 85, 85)"
        }
      ],
      "properties": {
        "order": 26,
        "id": 6,
        "name": "Feature-Resources",
        "prevSize": 32,
        "code": 59653
      },
      "setIdx": 0,
      "setId": 2,
      "iconIdx": 6
    },
    {
      "icon": {
        "paths": [
          "M759.467 384c0-140.8-115.2-256-256-256s-256 115.2-256 256c0 93.867 51.2 174.933 128 221.867v281.6l128-85.333 128 85.333v-281.6c76.8-42.667 128-128 128-221.867zM588.8 806.4l-59.733-42.667-25.6-17.067-25.6 17.067-59.733 42.667v-179.2c25.6 8.533 55.467 17.067 85.333 17.067s59.733-4.267 85.333-12.8v174.933zM503.467 597.333c-119.467 0-213.333-93.867-213.333-213.333s93.867-213.333 213.333-213.333c119.467 0 213.333 93.867 213.333 213.333s-93.867 213.333-213.333 213.333z"
        ],
        "attrs": [
          {
            "fill": "rgb(85, 85, 85)"
          }
        ],
        "isMulticolor": false,
        "isMulticolor2": false,
        "grid": 0,
        "tags": [
          "Feature Sertificate"
        ],
        "colorPermutations": {
          "255100018585851": [
            {
              "f": 0
            }
          ]
        }
      },
      "attrs": [
        {
          "fill": "rgb(85, 85, 85)"
        }
      ],
      "properties": {
        "order": 25,
        "id": 5,
        "name": "Feature-Sertificate",
        "prevSize": 32,
        "code": 59654
      },
      "setIdx": 0,
      "setId": 2,
      "iconIdx": 7
    },
    {
      "icon": {
        "paths": [
          "M302.933 810.667v-597.333l413.867 298.667-413.867 298.667zM345.6 298.667v426.667l298.667-213.333-298.667-213.333z"
        ],
        "attrs": [
          {}
        ],
        "isMulticolor": false,
        "isMulticolor2": false,
        "grid": 0,
        "tags": [
          "Feature Video"
        ],
        "colorPermutations": {
          "255100018585851": [
            {}
          ]
        }
      },
      "attrs": [
        {}
      ],
      "properties": {
        "order": 27,
        "id": 4,
        "name": "Feature-Video",
        "prevSize": 32,
        "code": 59655
      },
      "setIdx": 0,
      "setId": 2,
      "iconIdx": 8
    },
    {
      "icon": {
        "paths": [
          "M512 89.6c-234.667 0-426.667 192-426.667 426.667s192 426.667 426.667 426.667c234.667 0 426.667-192 426.667-426.667s-192-426.667-426.667-426.667zM422.4 725.333v-426.667l298.667 213.333-298.667 213.333z"
        ],
        "attrs": [
          {
            "fill": "rgb(85, 85, 85)"
          }
        ],
        "isMulticolor": false,
        "isMulticolor2": false,
        "grid": 0,
        "tags": [
          "Lesson Video"
        ],
        "colorPermutations": {
          "255100018585851": [
            {
              "f": 0
            }
          ]
        }
      },
      "attrs": [
        {
          "fill": "rgb(85, 85, 85)"
        }
      ],
      "properties": {
        "order": 28,
        "id": 3,
        "name": "Lesson-Video",
        "prevSize": 32,
        "code": 59656
      },
      "setIdx": 0,
      "setId": 2,
      "iconIdx": 9
    },
    {
      "icon": {
        "paths": [
          "M512 345.6l-273.067 273.067 64 59.733 209.067-213.333 209.067 213.333 64-59.733z"
        ],
        "attrs": [
          {}
        ],
        "isMulticolor": false,
        "isMulticolor2": false,
        "grid": 0,
        "tags": [
          "List Close"
        ],
        "colorPermutations": {
          "255100018585851": [
            {}
          ]
        }
      },
      "attrs": [
        {}
      ],
      "properties": {
        "order": 29,
        "id": 2,
        "name": "List-Close",
        "prevSize": 32,
        "code": 59657
      },
      "setIdx": 0,
      "setId": 2,
      "iconIdx": 10
    },
    {
      "icon": {
        "paths": [
          "M512 678.4l-273.067-273.067 64-59.733 209.067 213.333 209.067-213.333 64 59.733z"
        ],
        "attrs": [
          {}
        ],
        "isMulticolor": false,
        "isMulticolor2": false,
        "grid": 0,
        "tags": [
          "List Open"
        ],
        "colorPermutations": {
          "255100018585851": [
            {}
          ]
        }
      },
      "attrs": [
        {}
      ],
      "properties": {
        "order": 30,
        "id": 1,
        "name": "List-Open",
        "prevSize": 32,
        "code": 59658
      },
      "setIdx": 0,
      "setId": 2,
      "iconIdx": 11
    },
    {
      "icon": {
        "paths": [
          "M661.333 162.133l-149.333 149.333-149.333-149.333-277.333 273.067 426.667 426.667 426.667-426.667-277.333-273.067zM123.733 435.2l234.667-234.667 153.6 149.333 149.333-149.333 234.667 234.667-384 388.267-388.267-388.267z",
          "M661.333 247.467l-149.333 149.333-149.333-149.333-192 187.733 341.333 341.333 341.333-341.333-192-187.733zM213.333 435.2l149.333-149.333 149.333 149.333 149.333-149.333 149.333 149.333-298.667 298.667-298.667-298.667z",
          "M661.333 332.8l-149.333 149.333-149.333-149.333-106.667 102.4 256 256 256-256-106.667-102.4zM298.667 435.2l64-64 149.333 149.333 149.333-149.333 64 64-213.333 213.333-213.333-213.333z",
          "M652.8 426.667l-140.8 140.8-140.8-140.8-17.067 21.333 157.867 157.867 157.867-157.867z"
        ],
        "attrs": [
          {
            "fill": "rgb(85, 85, 85)"
          },
          {
            "fill": "rgb(85, 85, 85)"
          },
          {
            "fill": "rgb(85, 85, 85)"
          },
          {
            "fill": "rgb(85, 85, 85)"
          }
        ],
        "isMulticolor": false,
        "isMulticolor2": false,
        "grid": 0,
        "tags": [
          "Logo Znak"
        ],
        "colorPermutations": {
          "255100018585851": [
            {
              "f": 0
            },
            {
              "f": 0
            },
            {
              "f": 0
            },
            {
              "f": 0
            }
          ]
        }
      },
      "attrs": [
        {
          "fill": "rgb(85, 85, 85)"
        },
        {
          "fill": "rgb(85, 85, 85)"
        },
        {
          "fill": "rgb(85, 85, 85)"
        },
        {
          "fill": "rgb(85, 85, 85)"
        }
      ],
      "properties": {
        "order": 31,
        "id": 0,
        "name": "Logo-Znak",
        "prevSize": 32,
        "code": 59659
      },
      "setIdx": 0,
      "setId": 2,
      "iconIdx": 12
    }
  ],
  "height": 1024,
  "metadata": {
    "name": "icomoon"
  },
  "preferences": {
    "showGlyphs": true,
    "showQuickUse": true,
    "showQuickUse2": true,
    "showSVGs": true,
    "fontPref": {
      "prefix": "icon-",
      "metadata": {
        "fontFamily": "icomoon",
        "majorVersion": 1,
        "minorVersion": 0
      },
      "metrics": {
        "emSize": 1024,
        "baseline": 6.25,
        "whitespace": 50
      },
      "embed": false,
      "autoHost": true
    },
    "imagePref": {
      "prefix": "icon-",
      "png": true,
      "useClassSelector": true,
      "color": 0,
      "bgColor": 16777215,
      "classSelector": ".icon"
    },
    "historySize": 50,
    "showCodes": true,
    "gridSize": 16,
    "quickUsageToken": {
      "HeartBeat": "YzJlMTgwMmY1YjJlNTUwZGRhOGQ3N2I5OWQzMWJkYjIjMSMxNDk5MDA2NDYwIyMj"
    }
  }
}